%YAML 1.1
%TAG !u! tag:unity3d.com,2011:
--- !u!21 &2100000
Material:
  serializedVersion: 6
  m_ObjectHideFlags: 0
  m_CorrespondingSourceObject: {fileID: 0}
  m_PrefabInstance: {fileID: 0}
  m_PrefabAsset: {fileID: 0}
  m_Name: Transparent_Pie_Salmon
  m_Shader: {fileID: 4800000, guid: ac82e18d66cd1c3458642d2733be5da8, type: 3}
  m_ShaderKeywords: 
  m_LightmapFlags: 4
  m_EnableInstancingVariants: 0
  m_DoubleSidedGI: 0
  m_CustomRenderQueue: 3000
  stringTagMap: {}
  disabledShaderPasses: []
  m_SavedProperties:
    serializedVersion: 3
    m_TexEnvs: []
    m_Floats:
    - _Opacity: 1
    - _TransAmbient: 0.2
    - _TransDirect: 1
    - _TransNormalDistortion: 0.1
    - _TransScattering: 2
    - _TransShadow: 0.9
    - _Translucency: 1
    - _Translucency_Intensity: 0
    - __dirty: 0
    m_Colors:
    - _Albedo: {r: 0.8584906, g: 0.34420612, b: 0.6473275, a: 0}
    - _Color0: {r: 1, g: 1, b: 1, a: 0}
    - _Emissive: {r: 1, g: 1, b: 1, a: 0}
    - _Transulcency: {r: 1, g: 1, b: 1, a: 0}
