%YAML 1.1
%TAG !u! tag:unity3d.com,2011:
--- !u!21 &2100000
Material:
  serializedVersion: 6
  m_ObjectHideFlags: 0
  m_CorrespondingSourceObject: {fileID: 0}
  m_PrefabInstance: {fileID: 0}
  m_PrefabAsset: {fileID: 0}
  m_Name: Glass_Tubes
  m_Shader: {fileID: 4800000, guid: c39e2456f72dd7449bd6f522b124d87b, type: 3}
  m_ShaderKeywords: 
  m_LightmapFlags: 4
  m_EnableInstancingVariants: 0
  m_DoubleSidedGI: 0
  m_CustomRenderQueue: 3000
  stringTagMap: {}
  disabledShaderPasses: []
  m_SavedProperties:
    serializedVersion: 3
    m_TexEnvs: []
    m_Floats:
    - _ChromaticAberration: 0
    - _Opacity: 0.5
    - _Refraction: 1
    - _Smoothness: 1
    - __dirty: 0
    m_Colors:
    - _MainColor: {r: 1, g: 1, b: 1, a: 0}
