%YAML 1.1
%TAG !u! tag:unity3d.com,2011:
--- !u!21 &2100000
Material:
  serializedVersion: 6
  m_ObjectHideFlags: 0
  m_CorrespondingSourceObject: {fileID: 0}
  m_PrefabInstance: {fileID: 0}
  m_PrefabAsset: {fileID: 0}
  m_Name: Glass_Break
  m_Shader: {fileID: 4800000, guid: abc775eb39cd77f4293b25d0e54caaa1, type: 3}
  m_ShaderKeywords: 
  m_LightmapFlags: 0
  m_EnableInstancingVariants: 0
  m_DoubleSidedGI: 0
  m_CustomRenderQueue: 3000
  stringTagMap: {}
  disabledShaderPasses: []
  m_SavedProperties:
    serializedVersion: 3
    m_TexEnvs:
    - _texcoord:
        m_Texture: {fileID: 0}
        m_Scale: {x: 1, y: 1}
        m_Offset: {x: 0, y: 0}
    m_Floats:
    - _Angle: 10
    - _ChromaticAberration: 0.1
    - _Cutoff: 0.5
    - _Float2: 0
    - _Float4: 0.02
    - _Opacity: 1
    - _Scale: 8
    - _Widness: 0.04
    - __dirty: 0
    m_Colors:
    - _Color0: {r: 1, g: 1, b: 1, a: 1}
