%YAML 1.1
%TAG !u! tag:unity3d.com,2011:
--- !u!21 &2100000
Material:
  serializedVersion: 6
  m_ObjectHideFlags: 0
  m_CorrespondingSourceObject: {fileID: 0}
  m_PrefabInstance: {fileID: 0}
  m_PrefabAsset: {fileID: 0}
  m_Name: YellowBall
  m_Shader: {fileID: 4800000, guid: 6782973e3ca8b2543beddb0a3dc3175e, type: 3}
  m_ShaderKeywords: TCP2_DISABLE_WRAPPED_LIGHT _EMISSION
  m_LightmapFlags: 1
  m_EnableInstancingVariants: 0
  m_DoubleSidedGI: 0
  m_CustomRenderQueue: -1
  stringTagMap: {}
  disabledShaderPasses: []
  m_SavedProperties:
    serializedVersion: 3
    m_TexEnvs:
    - _BumpMap:
        m_Texture: {fileID: 0}
        m_Scale: {x: 1, y: 1}
        m_Offset: {x: 0, y: 0}
    - _MainTex:
        m_Texture: {fileID: 0}
        m_Scale: {x: 1, y: 1}
        m_Offset: {x: 0, y: 0}
    - _Ramp:
        m_Texture: {fileID: 0}
        m_Scale: {x: 1, y: 1}
        m_Offset: {x: 0, y: 0}
    m_Floats:
    - _RampSmooth: 0.7
    - _RampThreshold: 0.5
    m_Colors:
    - _Color: {r: 0.75709206, g: 0.7830189, b: 0.121885024, a: 1}
    - _HColor: {r: 1, g: 1, b: 1, a: 1}
    - _SColor: {r: 0.5808823, g: 0.5808823, b: 0.5808823, a: 1}
